Ticker	Name	ISIN	Currency	MarketPlace	List/segment	Average Price	Open Price	High Price	Low Price	Last close Price	Last Price	Price Change(%)	Best bid	Best ask	Trades	Volume	Turnover
APG1L	Apranga	LT0000102337	EUR	VLN	Baltic Main List	2.2903	2.2900	2.3000	2.2900	2.2900	2.3000	0.44%	2.2900	2.3000	11	3038	6958.05
ARC1T	Arco Vara	EE3100034653	EUR	TLN	Baltic Main List	1.3058	1.3200	1.3200	1.3000	1.3500	1.3200	-2.22%	1.2900	1.3100	11	8103	10580.84
BLT1T	Baltika	EE3100003609	EUR	TLN	Baltic Main List	0.2149	0.2180	0.2180	0.2100	0.2100	0.2160	2.86%	0.2100	0.2160	5	7400	1590.00
EEG1T	Ekspress Grupp	EE3100016965	EUR	TLN	Baltic Main List	1.2067	1.2000	1.2100	1.2000	1.2300	1.2100	-1.63%	1.2000	1.2100	3	2980	3596.00
EFT1T	EfTEN Real Estate Fund III	EE3100127242	EUR	TLN	Baltic Main List	15.6000	15.6000	15.6000	15.6000	15.7000	15.6000	-0.64%	15.6500	15.7000	3	332	5179.20
ESO1L	Energijos Skirstymo Operatorius	LT0000130023	EUR	VLN	Baltic Main List	0.8557	0.8560	0.8560	0.8540	0.8560	0.8540	-0.23%	0.8540	0.8560	3	933	798.41
GRD1R	Grindeks	LV0000100659	EUR	RIG	Baltic Main List	6.9568	7.1000	7.1000	6.9200	7.1200	7.0000	-1.69%	6.9200	7.0200	8	478	3325.34
GRG1L	Grigeo	LT0000102030	EUR	VLN	Baltic Main List	1.5553	1.5600	1.5650	1.5450	1.5700	1.5450	-1.59%	1.5450	1.5500	32	22192	34515.22
HAE1T	Harju Elekter	EE3100004250	EUR	TLN	Baltic Main List	5.1402	5.1400	5.1600	5.1400	5.1400	5.1400	-%	5.1400	5.1600	6	2687	13811.78
HMX1R	HansaMatrix	LV0000101590	EUR	RIG	Baltic Main List	7.6938	7.7500	7.7500	7.6500	8.0000	7.6500	-4.38%	7.5500	7.7500	3	356	2739.00
KNF1L	Klaipėdos nafta	LT0000111650	EUR	VLN	Baltic Main List	0.5300	0.5300	0.5300	0.5300	0.5240	0.5300	1.15%	0.5240	0.5300	1	1000	530.00
LHV1T	LHV Group	EE3100073644	EUR	TLN	Baltic Main List	11.1957	11.1000	11.2500	11.1000	11.2500	11.2000	-0.44%	11.2000	11.2500	24	7687	86061.35
LNA1L	Linas Agro Group	LT0000128092	EUR	VLN	Baltic Main List	0.6500	0.6500	0.6500	0.6500	0.6450	0.6500	0.78%	0.6450	0.6500	1	2000	1300.00
LNR1L	Lietuvos energijos gamyba	LT0000128571	EUR	VLN	Baltic Main List	0.5750	0.5750	0.5750	0.5750	0.5750	0.5750	-%	0.5700	0.5750	6	8937	5138.78
MRK1T	Merko Ehitus	EE3100098328	EUR	TLN	Baltic Main List	9.9021	9.9000	9.9500	9.8500	9.9000	9.9000	-%	9.8000	9.9000	19	6651	65858.90
NCN1T	Nordecon	EE3100039496	EUR	TLN	Baltic Main List	1.0600	1.0600	1.0600	1.0600	1.0600	1.0600	-%	1.0600	1.0800	7	11616	12312.96
NTU1L	Novaturas	LT0000131872	EUR	VLN	Baltic Main List	12.0590	12.1500	12.1500	12.0000	12.2200	12.0000	-1.80%	11.9600	12.0000	15	826	9960.72
OEG1T	Olympic Entertainment Group	EE3100084021	EUR	TLN	Baltic Main List	1.6340	1.6000	1.7000	1.6000	1.6600	1.7000	2.41%	1.6100	1.6900	5	720	1176.50
OLF1R	Olainfarm	LV0000100501	EUR	RIG	Baltic Main List	7.0373	7.1000	7.1000	7.0000	7.1000	7.0500	-0.70%	7.0500	7.1000	32	12814	90175.85
PRF1T	PRFoods	EE3100101031	EUR	TLN	Baltic Main List	0.7491	0.7600	0.7600	0.7400	0.7600	0.7550	-0.66%	0.7500	0.7550	13	12033	9013.61
PTR1L	Panevėžio statybos trestas	LT0000101446	EUR	VLN	Baltic Main List	0.9120	0.9120	0.9120	0.9120	0.9300	0.9120	-1.94%	0.9120	0.9200	1	1200	1094.40
PZV1L	Pieno žvaigždės	LT0000111676	EUR	VLN	Baltic Main List	0.0000	1.1500	0.0000	0.0000	1.1500	1.1500	-%	1.1400	1.1500	0	0	0.00
RSU1L	Rokiškio sūris	LT0000100372	EUR	VLN	Baltic Main List	2.6100	2.6100	2.6100	2.6100	2.6200	2.6100	-0.38%	2.5900	2.6100	1	183	477.63
SAB1L	Šiaulių bankas	LT0000102253	EUR	VLN	Baltic Main List	0.5120	0.5120	0.5140	0.5100	0.5140	0.5140	-%	0.5120	0.5140	33	132275	67722.63
SAF1R	SAF Tehnika	LV0000101129	EUR	RIG	Baltic Main List	4.1059	4.1000	4.2200	4.0800	4.1000	4.1200	0.49%	4.0600	4.1200	7	911	3740.52
SFG1T	Silvano Fashion Group	EE3100001751	EUR	TLN	Baltic Main List	2.7886	2.8100	2.8200	2.7500	2.8200	2.7800	-1.42%	2.7600	2.7900	83	81049	226009.72
TAL1T	Tallink Grupp	EE3100004466	EUR	TLN	Baltic Main List	1.0181	1.0150	1.0250	1.0150	1.0200	1.0200	-%	1.0200	1.0250	36	60215	61304.15
TEL1L	Telia Lietuva	LT0000123911	EUR	VLN	Baltic Main List	1.1301	1.1300	1.1350	1.1300	1.1250	1.1300	0.44%	1.1250	1.1300	10	22995	25986.57
TKM1T	Tallinna Kaubamaja Grupp	EE0000001105	EUR	TLN	Baltic Main List	9.1243	9.1200	9.1400	9.1200	9.1400	9.1400	-%	9.1200	9.1400	27	3563	32509.90
TSM1T	Tallinna Sadam	EE3100021635	EUR	TLN	Baltic Main List	1.9820	1.9830	1.9830	1.9810	1.9840	1.9830	-0.05%	1.9830	1.9830	29	266643	528482.75
TVEAT	Tallinna Vesi	EE3100026436	EUR	TLN	Baltic Main List	10.2143	10.2000	10.2500	10.2000	10.2000	10.2000	-%	10.2000	10.2500	6	416	4249.15
VLP1L	Vilkyškių pieninė	LT0000127508	EUR	VLN	Baltic Main List	3.1800	3.1800	3.1800	3.1800	3.2100	3.1800	-0.93%	3.1800	3.2100	2	80	254.40
AMG1L	Amber Grid	LT0000128696	EUR	VLN	Baltic Secondary List	0.0000	1.4400	0.0000	0.0000	1.4400	1.4400	-%	1.4400	1.4600	0	0	0.00
AUG1L	AUGA group	LT0000127466	EUR	VLN	Baltic Secondary List	0.4816	0.4860	0.4860	0.4800	0.4840	0.4800	-0.83%	0.4800	0.4820	19	17216	8291.64
BAL1R	Latvijas balzams	LV0000100808	EUR	RIG	Baltic Secondary List	8.3500	8.3500	8.3500	8.3500	8.5000	8.3500	-1.76%	8.3500	8.5000	11	4000	33400.00
BRV1R	Brīvais Vilnis	LV0000100824	EUR	RIG	Baltic Secondary List	0.0000	1.2900	0.0000	0.0000	1.2900	1.2900	-%	0.5900	1.1900	0	0	0.00
DPK1R	Ditton pievadķēžu rūpnīca	LV0000100212	EUR	RIG	Baltic Secondary List	0.0000	0.1960	0.0000	0.0000	0.1960	0.1960	-%	0.1900	0.1960	0	0	0.00
GRZ1R	Grobiņa	LV0000100527	EUR	RIG	Baltic Secondary List	0.0000	1.8500	0.0000	0.0000	1.8500	1.8500	-%	0.6000	3.4000	0	0	0.00
GUB1L	Gubernija	LT0000114357	EUR	VLN	Baltic Secondary List	0.5000	0.5000	0.5000	0.5000	0.5000	0.5000	-%	0.4740	0.5000	1	50	25.00
GZE1R	Latvijas Gāze	LV0000100899	EUR	RIG	Baltic Secondary List	10.4779	10.5000	10.5000	10.3000	10.6000	10.4000	-1.89%	10.4000	10.5000	11	1330	13935.60
INC1L	INVL Technology	LT0000128860	EUR	VLN	Baltic Secondary List	1.5700	1.5700	1.5700	1.5700	1.5700	1.5700	-%	1.5700	1.6000	1	183	287.31
INL1L	INVL Baltic Farmland	LT0000128753	EUR	VLN	Baltic Secondary List	4.0200	4.0200	4.0200	4.0200	4.0200	4.0200	-%	4.0200	4.3600	2	148	594.96
INR1L	INVL Baltic Real Estate	LT0000127151	EUR	VLN	Baltic Secondary List	2.2803	2.3000	2.3000	2.2800	2.3200	2.2800	-1.72%	2.2600	2.3200	2	387	882.46
IVL1L	Invalda INVL	LT0000102279	EUR	VLN	Baltic Secondary List	0.0000	5.4500	0.0000	0.0000	5.4500	5.4500	-%	5.4500	5.6500	0	0	0.00
KA11R	Kurzemes atslēga 1	LV0000100402	EUR	RIG	Baltic Secondary List	0.0000	0.9000	0.0000	0.0000	0.9000	0.9000	-%	0.6500	0.0000	0	0	0.00
KNR1L	Kauno energija	LT0000123010	EUR	VLN	Baltic Secondary List	0.0000	1.1900	0.0000	0.0000	1.1900	1.1900	-%	1.1000	1.1800	0	0	0.00
LGD1L	LITGRID	LT0000128415	EUR	VLN	Baltic Secondary List	0.6874	0.6850	0.6900	0.6850	0.6800	0.6900	1.47%	0.6850	0.7000	3	4150	2852.75
LJM1R	Latvijas Jūras medicīnas centrs	LV0000100741	EUR	RIG	Baltic Secondary List	0.0000	6.1000	0.0000	0.0000	6.1000	6.1000	-%	3.2000	8.0000	0	0	0.00
LNS1L	Linas	LT0000100661	EUR	VLN	Baltic Secondary List	0.0000	0.0890	0.0000	0.0000	0.0890	0.0890	-%	0.0900	0.0995	0	0	0.00
PKG1T	Pro Kapital Grupp	EE3100006040	EUR	TLN	Baltic Secondary List	0.0000	1.6000	0.0000	0.0000	1.6000	1.6000	-%	1.6000	1.6400	0	0	0.00
RAR1R	Rīgas autoelektroaparātu rūpnīca	LV0000100881	EUR	RIG	Baltic Secondary List	0.1260	0.1260	0.1260	0.1260	0.1210	0.1260	4.13%	0.1230	0.1320	1	900	113.40
RER1R	Rīgas elektromašīnbūves rūpnīca	LV0000101012	EUR	RIG	Baltic Secondary List	0.0000	6.3500	0.0000	0.0000	6.3500	6.3500	-%	1.5000	0.0000	0	0	0.00
RJR1R	Rīgas juvelierizstrādājumu rūpnīca	LV0000100543	EUR	RIG	Baltic Secondary List	0.0000	0.0790	0.0000	0.0000	0.0790	0.0790	-%	0.0750	0.0790	0	0	0.00
RKB1R	Rīgas kuģu būvētava	LV0000100378	EUR	RIG	Baltic Secondary List	0.0000	0.1250	0.0000	0.0000	0.1250	0.1250	-%	0.0880	0.1400	0	0	0.00
RRR1R	VEF Radiotehnika RRR	LV0000100972	EUR	RIG	Baltic Secondary List	0.0000	0.3000	0.0000	0.0000	0.3000	0.3000	-%	0.2720	0.3860	0	0	0.00
SCM1R	Siguldas ciltslietu un mākslīgās apsēklošanas stacija	LV0000100600	EUR	RIG	Baltic Secondary List	0.0000	4.3000	0.0000	0.0000	4.3000	4.3000	-%	2.7000	4.2000	0	0	0.00
SKN1T	Skano Group	EE3100092503	EUR	TLN	Baltic Secondary List	0.0000	0.5400	0.0000	0.0000	0.5400	0.5400	-%	0.5400	0.5500	0	0	0.00
SMA1R	PATA Saldus	LV0000100154	EUR	RIG	Baltic Secondary List	0.0000	18.8000	0.0000	0.0000	18.8000	18.8000	-%	12.0000	21.0000	0	0	0.00
SNG1L	Snaigė	LT0000109274	EUR	VLN	Baltic Secondary List	0.0000	0.1600	0.0000	0.0000	0.1600	0.1600	-%	0.1400	0.1690	0	0	0.00
TKB1R	Tosmares kuģubūvētava	LV0000101095	EUR	RIG	Baltic Secondary List	0.0000	0.1420	0.0000	0.0000	0.1420	0.1420	-%	0.0000	0.0000	0	0	0.00
TPD1T	Trigon Property Development	EE3100003443	EUR	TLN	Baltic Secondary List	0.0000	0.4600	0.0000	0.0000	0.4600	0.4600	-%	0.4600	0.5000	0	0	0.00
UTR1L	Utenos trikotažas	LT0000109324	EUR	VLN	Baltic Secondary List	0.0000	1.1000	0.0000	0.0000	1.1000	1.1000	-%	1.0700	1.2200	0	0	0.00
VBL1L	Vilniaus baldai	LT0000104267	EUR	VLN	Baltic Secondary List	0.0000	11.0000	0.0000	0.0000	11.0000	11.0000	-%	10.8000	11.1000	0	0	0.00
VDG1L	Vilniaus degtinė	LT0000112450	EUR	VLN	Baltic Secondary List	0.0000	0.5000	0.0000	0.0000	0.5000	0.5000	-%	0.2900	0.4900	0	0	0.00
VEF1R	VEF	LV0000101079	EUR	RIG	Baltic Secondary List	0.0000	1.5000	0.0000	0.0000	1.5000	1.5000	-%	1.5000	0.0000	0	0	0.00
VSS1R	Valmieras stikla šķiedra	LV0000100485	EUR	RIG	Baltic Secondary List	3.2800	3.2800	3.2800	3.2800	3.1400	3.2800	4.46%	3.1400	3.3400	1	195	639.60
ZMP1L	Žemaitijos pienas	LT0000121865	EUR	VLN	Baltic Secondary List	0.0000	1.7900	0.0000	0.0000	1.7900	1.7900	-%	1.7300	1.7800	0	0	0.00
BTE1R	Baltic Telekom	LV0000101384	EUR	RIG	First North Baltic Share List	0.0000	0.2480	0.0000	0.0000	0.2480	0.2480	-%	0.1100	0.2460	0	0	0.00
EWA1L	East West Agro	LT0000132060	EUR	VLN	First North Baltic Share List	0.0000	13.8000	0.0000	0.0000	13.8000	13.8000	-%	13.1000	13.3000	0	0	0.00
FRGTE	Frigate	LV0000101665	EUR	RIG	First North Baltic Share List	0.0000	0.0000	0.0000	0.0000	0.0000	0.0000	-%	10.0000	0.0000	0	0	0.00
K2LT	K2 LT	LT0000129009	EUR	VLN	First North Baltic Share List	0.0000	22.0000	0.0000	0.0000	22.0000	22.0000	-%	22.2000	24.0000	0	0	0.00
LINDA	Linda Nektar	EE3100060344	EUR	TLN	First North Baltic Share List	0.0000	6.6000	0.0000	0.0000	6.6000	6.6000	-%	5.9000	6.0000	0	0	0.00
MDARA	MADARA Cosmetics	LV0000101624	EUR	RIG	First North Baltic Share List	7.1627	7.4000	7.4000	7.1500	7.4000	7.1500	-3.38%	7.1500	7.4000	7	4056	29051.75